<?xml version="1.0" encoding="UTF-8"?>
<svg width="16px" height="16px" viewBox="0 0 16 16" version="1.1" xmlns="http://www.w3.org/2000/svg" xmlns:xlink="http://www.w3.org/1999/xlink">
    <!-- Generator: sketchtool 42 (36781) - http://www.bohemiancoding.com/sketch -->
    <title>1243680A-8833-4C5B-94D7-04B0C19ED9A2</title>
    <desc>Created with sketchtool.</desc>
    <defs></defs>
    <g id="Symbols" stroke="none" stroke-width="1" fill="none" fill-rule="evenodd">
        <g id="Icon-/-Other-/-Done-Cargo">
            <g id="Icon">
                <g id="bounds">
                    <rect x="0" y="0" width="16" height="16"></rect>
                </g>
                <path d="M7,9.43194028 L4.70710678,7.13904706 C4.31658249,6.74852277 3.68341751,6.74852277 3.29289322,7.13904706 C2.90236893,7.52957136 2.90236893,8.16273634 3.29289322,8.55326063 L6.29289322,11.5532606 C6.48815536,11.7485228 6.74407768,11.8461538 7,11.8461538 C7.25592232,11.8461538 7.51184464,11.7485228 7.70710678,11.5532606 L12.7071068,6.55326063 C13.0976311,6.16273634 13.0976311,5.52957136 12.7071068,5.13904706 C12.3165825,4.74852277 11.6834175,4.74852277 11.2928932,5.13904706 L7,9.43194028 Z" id="Combined-Shape" fill="#17A1C0" fill-rule="nonzero"></path>
            </g>
        </g>
    </g>
</svg>